\relax 
\@writefile{toc}{\contentsline {section}{\numberline {1}Description}{1}}
\@writefile{toc}{\contentsline {subsection}{\numberline {1.1}Part II: Task 2}{1}}
\@writefile{toc}{\contentsline {subsection}{\numberline {1.2}Part II: Task 5}{1}}
\newlabel{LastPage}{{}{2}}
\xdef\lastpage@lastpage{2}
\gdef\lastpage@lastpageHy{}
\global \c@l@stpage 3\relax \global \advance \c@l@stpage 0\relax 
